{
    "profiles": [
        {
            "id": "000140f1-bc63-443c-9e25-a10c68752d4f",
            "uid": "05a16e341c3c41f482f1fabc8a5a85f5",
            "name": "Testing JSON",
            "profile_type_id": "4d57c9fc-fd12-11ea-bf2b-12c72de8f519",
            "status": "Active",
            "id_proofing_status": "pending",
            "updated_at": "2020-10-20T20:13:27.000-04:00",
            "created_at": "2020-10-20T20:13:27.000-04:00",
            "attributes": {
                "operating_unit_id_ne_attribute": "1234",
                "company_ne_attribute": "MAN",
                "department_name_ne_attribute": "MAN Test 2",
                "id_ne_attribute": "123123123",
                "business_unit_name_ne_attribute": "BU NAME 1",
                "location_name_ne_attribute": "Location Name",
                "operating_unit_name_ne_attribute": "Operating Unit Name",
                "departments_positions_ne_attribute": "Department Position 1, Department Position 2",
                "business_unit_id_ne_attribute": "1234",
                "location_id_ne_attribute": "LOC1234"
            }
        },
        {
            "id": "00043d14-fe1d-4b6a-9624-cf4c9eb4a7b6",
            "uid": "7eed3ce917b1469a8bf16674f6e975b8",
            "name": "Testing JSON 2",
            "profile_type_id": "a661a580-2499-4a7c-b724-c42a77723179",
            "status": "Active",
            "id_proofing_status": "pending",
            "updated_at": "2022-03-22T15:03:58.078-04:00",
            "created_at": "2022-03-22T15:03:58.000-04:00",
            "attributes": {
                "company_ne_attribute": "COMP",
                "reports_to_profile_ne_attribute": "MANGER",
                "standard_hours_ne_attribute": "40",
                "engagement_job_code": "12345",
                "engagement_job_description": "Job Desc",
                "department_ne_attribute": "Department Name",
                "id_ne_attribute": "123123123",
                "last_updated_date_ne_attribute": "2022-03-22",
                "supervising_position_number_ne_attribute": "123123123",
                "regular_temporary_ne_attribute": "R",
                "full_part_time_ne_attribute": "F",
                "position_number_ne_attribute": "123456789",
                "business_unit_id_ne_attribute": "30000",
                "description_ne_attribute": "Decription 2",
                "supervisor_level_ne_attribute": "06",
                "location_id_ne_attribute": "LOC13412"
            }
        }
    ],
    "_metadata": {
        "limit": 2,
        "offset": 0,
        "total": 72751,
        "next": "/profiles?limit=2&offset=2"
    }
}